{
  "title": "PC-Style Shortcuts",
  "rules": [
    {
      "description": "Home key to the beginning of the line (Control + a)",
      "manipulators": [
        {
          "type": "basic",
          "from": {
            "key_code": "home",
            "modifiers": {
              "optional": [
                "any"
              ]
            }
          },
          "to": [
            {
              "key_code": "a",
              "modifiers": [
                "left_control"
              ]
            }
          ]
        }
      ]
    },
    {
      "description": "End key to the end of the line (Control + e)",
      "manipulators": [
        {
          "type": "basic",
          "from": {
            "key_code": "end",
            "modifiers": {
              "optional": [
                "any"
              ]
            }
          },
          "to": [
            {
              "key_code": "e",
              "modifiers": [
                "left_control"
              ]
            }
          ]
        }
      ]
    },
    {
      "description": "Home key to the beginning of the sentence (Command + Left). Doesnt work in terminal",
      "manipulators": [
        {
          "type": "basic",
          "from": {
            "key_code": "home",
            "modifiers": {
              "optional": [
                "any"
              ]
            }
          },
          "to": [
            {
              "key_code": "left_arrow",
              "modifiers": [
                "command"
              ]
            }
          ]
        }
      ]
    },
    {
      "description": "End key to the end of the sentence (Command + Right). Doesnt work in terminal",
      "manipulators": [
        {
          "type": "basic",
          "from": {
            "key_code": "end",
            "modifiers": {
              "optional": [
                "any"
              ]
            }
          },
          "to": [
            {
              "key_code": "right_arrow",
              "modifiers": [
                "command"
              ]
            }
          ]
        }
      ]
    },
    {
      "description": "PC-Style Home/End",
      "manipulators": [
        {
          "type": "basic",
          "from": {
            "key_code": "home",
            "modifiers": {
              "optional": [
                "shift"
              ]
            }
          },
          "to": [
            {
              "key_code": "left_arrow",
              "modifiers": [
                "left_command"
              ]
            }
          ],
          "conditions": [
            {
              "type": "frontmost_application_unless",
              "bundle_identifiers": [
                "^com\\.microsoft\\.rdc$",
                "^com\\.microsoft\\.rdc\\.mac$",
                "^com\\.microsoft\\.rdc\\.macos$",
                "^com\\.microsoft\\.rdc\\.osx\\.beta$",
                "^net\\.sf\\.cord$",
                "^com\\.thinomenon\\.RemoteDesktopConnection$",
                "^com\\.itap-mobile\\.qmote$",
                "^com\\.nulana\\.remotixmac$",
                "^com\\.p5sys\\.jump\\.mac\\.viewer$",
                "^com\\.p5sys\\.jump\\.mac\\.viewer\\.web$",
                "^com\\.teamviewer\\.TeamViewer$",
                "^com\\.vmware\\.horizon$",
                "^com\\.2X\\.Client\\.Mac$",
                "^com\\.vmware\\.fusion$",
                "^com\\.vmware\\.horizon$",
                "^com\\.vmware\\.view$",
                "^com\\.parallels\\.desktop$",
                "^com\\.parallels\\.vm$",
                "^com\\.parallels\\.desktop\\.console$",
                "^org\\.virtualbox\\.app\\.VirtualBoxVM$",
                "^com\\.citrix\\.XenAppViewer$",
                "^com\\.vmware\\.proxyApp\\.",
                "^com\\.parallels\\.winapp\\.",
                "^com\\.apple\\.Terminal$",
                "^com\\.googlecode\\.iterm2$",
                "^co\\.zeit\\.hyperterm$",
                "^co\\.zeit\\.hyper$",
                "^io\\.alacritty$",
                "^net\\.kovidgoyal\\.kitty$",
                "^org\\.mozilla\\.firefox$",
                "^com\\.google\\.Chrome$",
                "^com\\.apple\\.Safari$",
                "^cz\\.or\\.repo\\.git-gui$",
                "^com\\.jetbrains\\."
              ]
            }
          ]
        },
        {
          "type": "basic",
          "from": {
            "key_code": "home",
            "modifiers": {
              "optional": [
                "shift"
              ]
            }
          },
          "to": [
            {
              "key_code": "a",
              "modifiers": [
                "left_control"
              ]
            }
          ],
          "conditions": [
            {
              "type": "frontmost_application_if",
              "bundle_identifiers": [
                "^org\\.mozilla\\.firefox$",
                "^com\\.google\\.Chrome$",
                "^com\\.apple\\.Safari$"
              ]
            }
          ]
        },
        {
          "type": "basic",
          "from": {
            "key_code": "home",
            "modifiers": {
              "mandatory": [
                "control"
              ],
              "optional": [
                "shift"
              ]
            }
          },
          "to": [
            {
              "key_code": "up_arrow",
              "modifiers": [
                "left_command"
              ]
            }
          ],
          "conditions": [
            {
              "type": "frontmost_application_unless",
              "bundle_identifiers": [
                "^com\\.microsoft\\.rdc$",
                "^com\\.microsoft\\.rdc\\.mac$",
                "^com\\.microsoft\\.rdc\\.macos$",
                "^com\\.microsoft\\.rdc\\.osx\\.beta$",
                "^net\\.sf\\.cord$",
                "^com\\.thinomenon\\.RemoteDesktopConnection$",
                "^com\\.itap-mobile\\.qmote$",
                "^com\\.nulana\\.remotixmac$",
                "^com\\.p5sys\\.jump\\.mac\\.viewer$",
                "^com\\.p5sys\\.jump\\.mac\\.viewer\\.web$",
                "^com\\.teamviewer\\.TeamViewer$",
                "^com\\.vmware\\.horizon$",
                "^com\\.2X\\.Client\\.Mac$",
                "^com\\.vmware\\.fusion$",
                "^com\\.vmware\\.horizon$",
                "^com\\.vmware\\.view$",
                "^com\\.parallels\\.desktop$",
                "^com\\.parallels\\.vm$",
                "^com\\.parallels\\.desktop\\.console$",
                "^org\\.virtualbox\\.app\\.VirtualBoxVM$",
                "^com\\.citrix\\.XenAppViewer$",
                "^com\\.vmware\\.proxyApp\\.",
                "^com\\.parallels\\.winapp\\.",
                "^com\\.apple\\.Terminal$",
                "^com\\.googlecode\\.iterm2$",
                "^co\\.zeit\\.hyperterm$",
                "^co\\.zeit\\.hyper$",
                "^io\\.alacritty$",
                "^net\\.kovidgoyal\\.kitty$",
                "^cz\\.or\\.repo\\.git-gui$",
                "^com\\.jetbrains\\."
              ]
            }
          ]
        },
        {
          "type": "basic",
          "from": {
            "key_code": "end",
            "modifiers": {
              "optional": [
                "shift"
              ]
            }
          },
          "to": [
            {
              "key_code": "right_arrow",
              "modifiers": [
                "left_command"
              ]
            }
          ],
          "conditions": [
            {
              "type": "frontmost_application_unless",
              "bundle_identifiers": [
                "^com\\.microsoft\\.rdc$",
                "^com\\.microsoft\\.rdc\\.mac$",
                "^com\\.microsoft\\.rdc\\.macos$",
                "^com\\.microsoft\\.rdc\\.osx\\.beta$",
                "^net\\.sf\\.cord$",
                "^com\\.thinomenon\\.RemoteDesktopConnection$",
                "^com\\.itap-mobile\\.qmote$",
                "^com\\.nulana\\.remotixmac$",
                "^com\\.p5sys\\.jump\\.mac\\.viewer$",
                "^com\\.p5sys\\.jump\\.mac\\.viewer\\.web$",
                "^com\\.teamviewer\\.TeamViewer$",
                "^com\\.vmware\\.horizon$",
                "^com\\.2X\\.Client\\.Mac$",
                "^com\\.vmware\\.fusion$",
                "^com\\.vmware\\.horizon$",
                "^com\\.vmware\\.view$",
                "^com\\.parallels\\.desktop$",
                "^com\\.parallels\\.vm$",
                "^com\\.parallels\\.desktop\\.console$",
                "^org\\.virtualbox\\.app\\.VirtualBoxVM$",
                "^com\\.citrix\\.XenAppViewer$",
                "^com\\.vmware\\.proxyApp\\.",
                "^com\\.parallels\\.winapp\\.",
                "^com\\.apple\\.Terminal$",
                "^com\\.googlecode\\.iterm2$",
                "^co\\.zeit\\.hyperterm$",
                "^co\\.zeit\\.hyper$",
                "^io\\.alacritty$",
                "^net\\.kovidgoyal\\.kitty$",
                "^org\\.mozilla\\.firefox$",
                "^com\\.google\\.Chrome$",
                "^com\\.apple\\.Safari$",
                "^cz\\.or\\.repo\\.git-gui$",
                "^com\\.jetbrains\\."
              ]
            }
          ]
        },
        {
          "type": "basic",
          "from": {
            "key_code": "end",
            "modifiers": {
              "optional": [
                "shift"
              ]
            }
          },
          "to": [
            {
              "key_code": "e",
              "modifiers": [
                "left_control"
              ]
            }
          ],
          "conditions": [
            {
              "type": "frontmost_application_if",
              "bundle_identifiers": [
                "^org\\.mozilla\\.firefox$",
                "^com\\.google\\.Chrome$",
                "^com\\.apple\\.Safari$"
              ]
            }
          ]
        },
        {
          "type": "basic",
          "from": {
            "key_code": "end",
            "modifiers": {
              "mandatory": [
                "control"
              ],
              "optional": [
                "shift"
              ]
            }
          },
          "to": [
            {
              "key_code": "down_arrow",
              "modifiers": [
                "left_command"
              ]
            }
          ],
          "conditions": [
            {
              "type": "frontmost_application_unless",
              "bundle_identifiers": [
                "^com\\.microsoft\\.rdc$",
                "^com\\.microsoft\\.rdc\\.mac$",
                "^com\\.microsoft\\.rdc\\.macos$",
                "^com\\.microsoft\\.rdc\\.osx\\.beta$",
                "^net\\.sf\\.cord$",
                "^com\\.thinomenon\\.RemoteDesktopConnection$",
                "^com\\.itap-mobile\\.qmote$",
                "^com\\.nulana\\.remotixmac$",
                "^com\\.p5sys\\.jump\\.mac\\.viewer$",
                "^com\\.p5sys\\.jump\\.mac\\.viewer\\.web$",
                "^com\\.teamviewer\\.TeamViewer$",
                "^com\\.vmware\\.horizon$",
                "^com\\.2X\\.Client\\.Mac$",
                "^com\\.vmware\\.fusion$",
                "^com\\.vmware\\.horizon$",
                "^com\\.vmware\\.view$",
                "^com\\.parallels\\.desktop$",
                "^com\\.parallels\\.vm$",
                "^com\\.parallels\\.desktop\\.console$",
                "^org\\.virtualbox\\.app\\.VirtualBoxVM$",
                "^com\\.citrix\\.XenAppViewer$",
                "^com\\.vmware\\.proxyApp\\.",
                "^com\\.parallels\\.winapp\\.",
                "^com\\.apple\\.Terminal$",
                "^com\\.googlecode\\.iterm2$",
                "^co\\.zeit\\.hyperterm$",
                "^co\\.zeit\\.hyper$",
                "^io\\.alacritty$",
                "^net\\.kovidgoyal\\.kitty$",
                "^cz\\.or\\.repo\\.git-gui$",
                "^com\\.jetbrains\\."
              ]
            }
          ]
        }
      ]
    },
    {
      "description": "Option(Alt)+Tab as Switch Application (Command+Tab)",
      "manipulators": [
        {
          "type": "basic",
          "from": {
            "key_code": "tab",
            "modifiers": {
              "mandatory": [
                "option"
              ],
              "optional": [
                "any"
              ]
            }
          },
          "to": [
            {
              "key_code": "tab",
              "modifiers": [
                "left_command"
              ]
            }
          ]
        }
      ]
    },
    {
      "description": "PC-Style Control+Up/Down/Left/Right",
      "manipulators": [
        {
          "type": "basic",
          "from": {
            "key_code": "left_arrow",
            "modifiers": {
              "mandatory": [
                "control"
              ],
              "optional": [
                "any"
              ]
            }
          },
          "to": [
            {
              "key_code": "left_arrow",
              "modifiers": [
                "left_option"
              ]
            }
          ],
          "conditions": [
            {
              "type": "frontmost_application_unless",
              "bundle_identifiers": [
                "^com\\.microsoft\\.rdc$",
                "^com\\.microsoft\\.rdc\\.mac$",
                "^com\\.microsoft\\.rdc\\.macos$",
                "^com\\.microsoft\\.rdc\\.osx\\.beta$",
                "^net\\.sf\\.cord$",
                "^com\\.thinomenon\\.RemoteDesktopConnection$",
                "^com\\.itap-mobile\\.qmote$",
                "^com\\.nulana\\.remotixmac$",
                "^com\\.p5sys\\.jump\\.mac\\.viewer$",
                "^com\\.p5sys\\.jump\\.mac\\.viewer\\.web$",
                "^com\\.teamviewer\\.TeamViewer$",
                "^com\\.vmware\\.horizon$",
                "^com\\.2X\\.Client\\.Mac$",
                "^com\\.vmware\\.fusion$",
                "^com\\.vmware\\.horizon$",
                "^com\\.vmware\\.view$",
                "^com\\.parallels\\.desktop$",
                "^com\\.parallels\\.vm$",
                "^com\\.parallels\\.desktop\\.console$",
                "^org\\.virtualbox\\.app\\.VirtualBoxVM$",
                "^com\\.citrix\\.XenAppViewer$",
                "^com\\.vmware\\.proxyApp\\.",
                "^com\\.parallels\\.winapp\\.",
                "^com\\.apple\\.Terminal$",
                "^com\\.googlecode\\.iterm2$",
                "^co\\.zeit\\.hyperterm$",
                "^co\\.zeit\\.hyper$",
                "^io\\.alacritty$",
                "^net\\.kovidgoyal\\.kitty$"
              ]
            }
          ]
        },
        {
          "type": "basic",
          "from": {
            "key_code": "right_arrow",
            "modifiers": {
              "mandatory": [
                "control"
              ],
              "optional": [
                "any"
              ]
            }
          },
          "to": [
            {
              "key_code": "right_arrow",
              "modifiers": [
                "left_option"
              ]
            }
          ],
          "conditions": [
            {
              "type": "frontmost_application_unless",
              "bundle_identifiers": [
                "^com\\.microsoft\\.rdc$",
                "^com\\.microsoft\\.rdc\\.mac$",
                "^com\\.microsoft\\.rdc\\.macos$",
                "^com\\.microsoft\\.rdc\\.osx\\.beta$",
                "^net\\.sf\\.cord$",
                "^com\\.thinomenon\\.RemoteDesktopConnection$",
                "^com\\.itap-mobile\\.qmote$",
                "^com\\.nulana\\.remotixmac$",
                "^com\\.p5sys\\.jump\\.mac\\.viewer$",
                "^com\\.p5sys\\.jump\\.mac\\.viewer\\.web$",
                "^com\\.teamviewer\\.TeamViewer$",
                "^com\\.vmware\\.horizon$",
                "^com\\.2X\\.Client\\.Mac$",
                "^com\\.vmware\\.fusion$",
                "^com\\.vmware\\.horizon$",
                "^com\\.vmware\\.view$",
                "^com\\.parallels\\.desktop$",
                "^com\\.parallels\\.vm$",
                "^com\\.parallels\\.desktop\\.console$",
                "^org\\.virtualbox\\.app\\.VirtualBoxVM$",
                "^com\\.citrix\\.XenAppViewer$",
                "^com\\.vmware\\.proxyApp\\.",
                "^com\\.parallels\\.winapp\\.",
                "^com\\.apple\\.Terminal$",
                "^com\\.googlecode\\.iterm2$",
                "^co\\.zeit\\.hyperterm$",
                "^co\\.zeit\\.hyper$",
                "^io\\.alacritty$",
                "^net\\.kovidgoyal\\.kitty$"
              ]
            }
          ]
        },
        {
          "type": "basic",
          "from": {
            "key_code": "up_arrow",
            "modifiers": {
              "mandatory": [
                "control"
              ],
              "optional": [
                "any"
              ]
            }
          },
          "to": [
            {
              "key_code": "up_arrow",
              "modifiers": [
                "left_command"
              ]
            }
          ],
          "conditions": [
            {
              "type": "frontmost_application_unless",
              "bundle_identifiers": [
                "^com\\.microsoft\\.rdc$",
                "^com\\.microsoft\\.rdc\\.mac$",
                "^com\\.microsoft\\.rdc\\.macos$",
                "^com\\.microsoft\\.rdc\\.osx\\.beta$",
                "^net\\.sf\\.cord$",
                "^com\\.thinomenon\\.RemoteDesktopConnection$",
                "^com\\.itap-mobile\\.qmote$",
                "^com\\.nulana\\.remotixmac$",
                "^com\\.p5sys\\.jump\\.mac\\.viewer$",
                "^com\\.p5sys\\.jump\\.mac\\.viewer\\.web$",
                "^com\\.teamviewer\\.TeamViewer$",
                "^com\\.vmware\\.horizon$",
                "^com\\.2X\\.Client\\.Mac$",
                "^com\\.vmware\\.fusion$",
                "^com\\.vmware\\.horizon$",
                "^com\\.vmware\\.view$",
                "^com\\.parallels\\.desktop$",
                "^com\\.parallels\\.vm$",
                "^com\\.parallels\\.desktop\\.console$",
                "^org\\.virtualbox\\.app\\.VirtualBoxVM$",
                "^com\\.citrix\\.XenAppViewer$",
                "^com\\.vmware\\.proxyApp\\.",
                "^com\\.parallels\\.winapp\\.",
                "^com\\.apple\\.Terminal$",
                "^com\\.googlecode\\.iterm2$",
                "^co\\.zeit\\.hyperterm$",
                "^co\\.zeit\\.hyper$",
                "^io\\.alacritty$",
                "^net\\.kovidgoyal\\.kitty$"
              ]
            }
          ]
        },
        {
          "type": "basic",
          "from": {
            "key_code": "down_arrow",
            "modifiers": {
              "mandatory": [
                "control"
              ],
              "optional": [
                "any"
              ]
            }
          },
          "to": [
            {
              "key_code": "down_arrow",
              "modifiers": [
                "left_command"
              ]
            }
          ],
          "conditions": [
            {
              "type": "frontmost_application_unless",
              "bundle_identifiers": [
                "^com\\.microsoft\\.rdc$",
                "^com\\.microsoft\\.rdc\\.mac$",
                "^com\\.microsoft\\.rdc\\.macos$",
                "^com\\.microsoft\\.rdc\\.osx\\.beta$",
                "^net\\.sf\\.cord$",
                "^com\\.thinomenon\\.RemoteDesktopConnection$",
                "^com\\.itap-mobile\\.qmote$",
                "^com\\.nulana\\.remotixmac$",
                "^com\\.p5sys\\.jump\\.mac\\.viewer$",
                "^com\\.p5sys\\.jump\\.mac\\.viewer\\.web$",
                "^com\\.teamviewer\\.TeamViewer$",
                "^com\\.vmware\\.horizon$",
                "^com\\.2X\\.Client\\.Mac$",
                "^com\\.vmware\\.fusion$",
                "^com\\.vmware\\.horizon$",
                "^com\\.vmware\\.view$",
                "^com\\.parallels\\.desktop$",
                "^com\\.parallels\\.vm$",
                "^com\\.parallels\\.desktop\\.console$",
                "^org\\.virtualbox\\.app\\.VirtualBoxVM$",
                "^com\\.citrix\\.XenAppViewer$",
                "^com\\.vmware\\.proxyApp\\.",
                "^com\\.parallels\\.winapp\\.",
                "^com\\.apple\\.Terminal$",
                "^com\\.googlecode\\.iterm2$",
                "^co\\.zeit\\.hyperterm$",
                "^co\\.zeit\\.hyper$",
                "^io\\.alacritty$",
                "^net\\.kovidgoyal\\.kitty$"
              ]
            }
          ]
        }
      ]
    },
    {
      "description": "PC-Style Copy/Paste/Cut",
      "manipulators": [
        {
          "type": "basic",
          "from": {
            "key_code": "c",
            "modifiers": {
              "mandatory": [
                "control"
              ],
              "optional": [
                "any"
              ]
            }
          },
          "to": [
            {
              "key_code": "c",
              "modifiers": [
                "left_command"
              ]
            }
          ],
          "conditions": [
            {
              "type": "frontmost_application_unless",
              "bundle_identifiers": [
                "^com\\.microsoft\\.rdc$",
                "^com\\.microsoft\\.rdc\\.mac$",
                "^com\\.microsoft\\.rdc\\.macos$",
                "^com\\.microsoft\\.rdc\\.osx\\.beta$",
                "^net\\.sf\\.cord$",
                "^com\\.thinomenon\\.RemoteDesktopConnection$",
                "^com\\.itap-mobile\\.qmote$",
                "^com\\.nulana\\.remotixmac$",
                "^com\\.p5sys\\.jump\\.mac\\.viewer$",
                "^com\\.p5sys\\.jump\\.mac\\.viewer\\.web$",
                "^com\\.teamviewer\\.TeamViewer$",
                "^com\\.vmware\\.horizon$",
                "^com\\.2X\\.Client\\.Mac$",
                "^com\\.vmware\\.fusion$",
                "^com\\.vmware\\.horizon$",
                "^com\\.vmware\\.view$",
                "^com\\.parallels\\.desktop$",
                "^com\\.parallels\\.vm$",
                "^com\\.parallels\\.desktop\\.console$",
                "^org\\.virtualbox\\.app\\.VirtualBoxVM$",
                "^com\\.citrix\\.XenAppViewer$",
                "^com\\.vmware\\.proxyApp\\.",
                "^com\\.parallels\\.winapp\\.",
                "^com\\.apple\\.Terminal$",
                "^com\\.googlecode\\.iterm2$",
                "^co\\.zeit\\.hyperterm$",
                "^co\\.zeit\\.hyper$",
                "^io\\.alacritty$",
                "^net\\.kovidgoyal\\.kitty$"
              ]
            }
          ]
        },
        {
          "type": "basic",
          "from": {
            "key_code": "v",
            "modifiers": {
              "mandatory": [
                "control"
              ],
              "optional": [
                "any"
              ]
            }
          },
          "to": [
            {
              "key_code": "v",
              "modifiers": [
                "left_command"
              ]
            }
          ],
          "conditions": [
            {
              "type": "frontmost_application_unless",
              "bundle_identifiers": [
                "^com\\.microsoft\\.rdc$",
                "^com\\.microsoft\\.rdc\\.mac$",
                "^com\\.microsoft\\.rdc\\.macos$",
                "^com\\.microsoft\\.rdc\\.osx\\.beta$",
                "^net\\.sf\\.cord$",
                "^com\\.thinomenon\\.RemoteDesktopConnection$",
                "^com\\.itap-mobile\\.qmote$",
                "^com\\.nulana\\.remotixmac$",
                "^com\\.p5sys\\.jump\\.mac\\.viewer$",
                "^com\\.p5sys\\.jump\\.mac\\.viewer\\.web$",
                "^com\\.teamviewer\\.TeamViewer$",
                "^com\\.vmware\\.horizon$",
                "^com\\.2X\\.Client\\.Mac$",
                "^com\\.vmware\\.fusion$",
                "^com\\.vmware\\.horizon$",
                "^com\\.vmware\\.view$",
                "^com\\.parallels\\.desktop$",
                "^com\\.parallels\\.vm$",
                "^com\\.parallels\\.desktop\\.console$",
                "^org\\.virtualbox\\.app\\.VirtualBoxVM$",
                "^com\\.citrix\\.XenAppViewer$",
                "^com\\.vmware\\.proxyApp\\.",
                "^com\\.parallels\\.winapp\\.",
                "^com\\.apple\\.Terminal$",
                "^com\\.googlecode\\.iterm2$",
                "^co\\.zeit\\.hyperterm$",
                "^co\\.zeit\\.hyper$",
                "^io\\.alacritty$",
                "^net\\.kovidgoyal\\.kitty$"
              ]
            }
          ]
        },
        {
          "type": "basic",
          "from": {
            "key_code": "x",
            "modifiers": {
              "mandatory": [
                "control"
              ],
              "optional": [
                "any"
              ]
            }
          },
          "to": [
            {
              "key_code": "x",
              "modifiers": [
                "left_command"
              ]
            }
          ],
          "conditions": [
            {
              "type": "frontmost_application_unless",
              "bundle_identifiers": [
                "^com\\.microsoft\\.rdc$",
                "^com\\.microsoft\\.rdc\\.mac$",
                "^com\\.microsoft\\.rdc\\.macos$",
                "^com\\.microsoft\\.rdc\\.osx\\.beta$",
                "^net\\.sf\\.cord$",
                "^com\\.thinomenon\\.RemoteDesktopConnection$",
                "^com\\.itap-mobile\\.qmote$",
                "^com\\.nulana\\.remotixmac$",
                "^com\\.p5sys\\.jump\\.mac\\.viewer$",
                "^com\\.p5sys\\.jump\\.mac\\.viewer\\.web$",
                "^com\\.teamviewer\\.TeamViewer$",
                "^com\\.vmware\\.horizon$",
                "^com\\.2X\\.Client\\.Mac$",
                "^com\\.vmware\\.fusion$",
                "^com\\.vmware\\.horizon$",
                "^com\\.vmware\\.view$",
                "^com\\.parallels\\.desktop$",
                "^com\\.parallels\\.vm$",
                "^com\\.parallels\\.desktop\\.console$",
                "^org\\.virtualbox\\.app\\.VirtualBoxVM$",
                "^com\\.citrix\\.XenAppViewer$",
                "^com\\.vmware\\.proxyApp\\.",
                "^com\\.parallels\\.winapp\\.",
                "^com\\.apple\\.Terminal$",
                "^com\\.googlecode\\.iterm2$",
                "^co\\.zeit\\.hyperterm$",
                "^co\\.zeit\\.hyper$",
                "^io\\.alacritty$",
                "^net\\.kovidgoyal\\.kitty$"
              ]
            }
          ]
        }
      ]
    },
    {
      "description": "PC-Style Undo",
      "manipulators": [
        {
          "type": "basic",
          "from": {
            "key_code": "z",
            "modifiers": {
              "mandatory": [
                "control"
              ],
              "optional": [
                "any"
              ]
            }
          },
          "to": [
            {
              "key_code": "z",
              "modifiers": [
                "left_command"
              ]
            }
          ],
          "conditions": [
            {
              "type": "frontmost_application_unless",
              "bundle_identifiers": [
                "^com\\.microsoft\\.rdc$",
                "^com\\.microsoft\\.rdc\\.mac$",
                "^com\\.microsoft\\.rdc\\.macos$",
                "^com\\.microsoft\\.rdc\\.osx\\.beta$",
                "^net\\.sf\\.cord$",
                "^com\\.thinomenon\\.RemoteDesktopConnection$",
                "^com\\.itap-mobile\\.qmote$",
                "^com\\.nulana\\.remotixmac$",
                "^com\\.p5sys\\.jump\\.mac\\.viewer$",
                "^com\\.p5sys\\.jump\\.mac\\.viewer\\.web$",
                "^com\\.teamviewer\\.TeamViewer$",
                "^com\\.vmware\\.horizon$",
                "^com\\.2X\\.Client\\.Mac$",
                "^com\\.vmware\\.fusion$",
                "^com\\.vmware\\.horizon$",
                "^com\\.vmware\\.view$",
                "^com\\.parallels\\.desktop$",
                "^com\\.parallels\\.vm$",
                "^com\\.parallels\\.desktop\\.console$",
                "^org\\.virtualbox\\.app\\.VirtualBoxVM$",
                "^com\\.citrix\\.XenAppViewer$",
                "^com\\.vmware\\.proxyApp\\.",
                "^com\\.parallels\\.winapp\\.",
                "^com\\.apple\\.Terminal$",
                "^com\\.googlecode\\.iterm2$",
                "^co\\.zeit\\.hyperterm$",
                "^co\\.zeit\\.hyper$",
                "^io\\.alacritty$",
                "^net\\.kovidgoyal\\.kitty$"
              ]
            }
          ]
        }
      ]
    },
    {
      "description": "PC-Style Redo",
      "manipulators": [
        {
          "type": "basic",
          "from": {
            "key_code": "y",
            "modifiers": {
              "mandatory": [
                "control"
              ],
              "optional": [
                "any"
              ]
            }
          },
          "to": [
            {
              "key_code": "z",
              "modifiers": [
                "left_command",
                "left_shift"
              ]
            }
          ],
          "conditions": [
            {
              "type": "frontmost_application_unless",
              "bundle_identifiers": [
                "^com\\.microsoft\\.rdc$",
                "^com\\.microsoft\\.rdc\\.mac$",
                "^com\\.microsoft\\.rdc\\.macos$",
                "^com\\.microsoft\\.rdc\\.osx\\.beta$",
                "^net\\.sf\\.cord$",
                "^com\\.thinomenon\\.RemoteDesktopConnection$",
                "^com\\.itap-mobile\\.qmote$",
                "^com\\.nulana\\.remotixmac$",
                "^com\\.p5sys\\.jump\\.mac\\.viewer$",
                "^com\\.p5sys\\.jump\\.mac\\.viewer\\.web$",
                "^com\\.teamviewer\\.TeamViewer$",
                "^com\\.vmware\\.horizon$",
                "^com\\.2X\\.Client\\.Mac$",
                "^com\\.vmware\\.fusion$",
                "^com\\.vmware\\.horizon$",
                "^com\\.vmware\\.view$",
                "^com\\.parallels\\.desktop$",
                "^com\\.parallels\\.vm$",
                "^com\\.parallels\\.desktop\\.console$",
                "^org\\.virtualbox\\.app\\.VirtualBoxVM$",
                "^com\\.citrix\\.XenAppViewer$",
                "^com\\.vmware\\.proxyApp\\.",
                "^com\\.parallels\\.winapp\\.",
                "^com\\.apple\\.Terminal$",
                "^com\\.googlecode\\.iterm2$",
                "^co\\.zeit\\.hyperterm$",
                "^co\\.zeit\\.hyper$",
                "^io\\.alacritty$",
                "^net\\.kovidgoyal\\.kitty$"
              ]
            }
          ]
        }
      ]
    },
    {
      "description": "PC-Style Select-All",
      "manipulators": [
        {
          "type": "basic",
          "from": {
            "key_code": "a",
            "modifiers": {
              "mandatory": [
                "control"
              ],
              "optional": [
                "any"
              ]
            }
          },
          "to": [
            {
              "key_code": "a",
              "modifiers": [
                "left_command"
              ]
            }
          ],
          "conditions": [
            {
              "type": "frontmost_application_unless",
              "bundle_identifiers": [
                "^com\\.microsoft\\.rdc$",
                "^com\\.microsoft\\.rdc\\.mac$",
                "^com\\.microsoft\\.rdc\\.macos$",
                "^com\\.microsoft\\.rdc\\.osx\\.beta$",
                "^net\\.sf\\.cord$",
                "^com\\.thinomenon\\.RemoteDesktopConnection$",
                "^com\\.itap-mobile\\.qmote$",
                "^com\\.nulana\\.remotixmac$",
                "^com\\.p5sys\\.jump\\.mac\\.viewer$",
                "^com\\.p5sys\\.jump\\.mac\\.viewer\\.web$",
                "^com\\.teamviewer\\.TeamViewer$",
                "^com\\.vmware\\.horizon$",
                "^com\\.2X\\.Client\\.Mac$",
                "^com\\.vmware\\.fusion$",
                "^com\\.vmware\\.horizon$",
                "^com\\.vmware\\.view$",
                "^com\\.parallels\\.desktop$",
                "^com\\.parallels\\.vm$",
                "^com\\.parallels\\.desktop\\.console$",
                "^org\\.virtualbox\\.app\\.VirtualBoxVM$",
                "^com\\.citrix\\.XenAppViewer$",
                "^com\\.vmware\\.proxyApp\\.",
                "^com\\.parallels\\.winapp\\.",
                "^com\\.apple\\.Terminal$",
                "^com\\.googlecode\\.iterm2$",
                "^co\\.zeit\\.hyperterm$",
                "^co\\.zeit\\.hyper$",
                "^io\\.alacritty$",
                "^net\\.kovidgoyal\\.kitty$"
              ]
            }
          ]
        }
      ]
    },
    {
      "description": "PC-Style Save",
      "manipulators": [
        {
          "type": "basic",
          "from": {
            "key_code": "s",
            "modifiers": {
              "mandatory": [
                "control"
              ],
              "optional": [
                "any"
              ]
            }
          },
          "to": [
            {
              "key_code": "s",
              "modifiers": [
                "left_command"
              ]
            }
          ],
          "conditions": [
            {
              "type": "frontmost_application_unless",
              "bundle_identifiers": [
                "^com\\.microsoft\\.rdc$",
                "^com\\.microsoft\\.rdc\\.mac$",
                "^com\\.microsoft\\.rdc\\.macos$",
                "^com\\.microsoft\\.rdc\\.osx\\.beta$",
                "^net\\.sf\\.cord$",
                "^com\\.thinomenon\\.RemoteDesktopConnection$",
                "^com\\.itap-mobile\\.qmote$",
                "^com\\.nulana\\.remotixmac$",
                "^com\\.p5sys\\.jump\\.mac\\.viewer$",
                "^com\\.p5sys\\.jump\\.mac\\.viewer\\.web$",
                "^com\\.teamviewer\\.TeamViewer$",
                "^com\\.vmware\\.horizon$",
                "^com\\.2X\\.Client\\.Mac$",
                "^com\\.vmware\\.fusion$",
                "^com\\.vmware\\.horizon$",
                "^com\\.vmware\\.view$",
                "^com\\.parallels\\.desktop$",
                "^com\\.parallels\\.vm$",
                "^com\\.parallels\\.desktop\\.console$",
                "^org\\.virtualbox\\.app\\.VirtualBoxVM$",
                "^com\\.citrix\\.XenAppViewer$",
                "^com\\.vmware\\.proxyApp\\.",
                "^com\\.parallels\\.winapp\\.",
                "^com\\.apple\\.Terminal$",
                "^com\\.googlecode\\.iterm2$",
                "^co\\.zeit\\.hyperterm$",
                "^co\\.zeit\\.hyper$",
                "^io\\.alacritty$",
                "^net\\.kovidgoyal\\.kitty$"
              ]
            }
          ]
        }
      ]
    },
    {
      "description": "PC-Style New",
      "manipulators": [
        {
          "type": "basic",
          "from": {
            "key_code": "n",
            "modifiers": {
              "mandatory": [
                "control"
              ],
              "optional": [
                "any"
              ]
            }
          },
          "to": [
            {
              "key_code": "n",
              "modifiers": [
                "left_command"
              ]
            }
          ],
          "conditions": [
            {
              "type": "frontmost_application_unless",
              "bundle_identifiers": [
                "^com\\.microsoft\\.rdc$",
                "^com\\.microsoft\\.rdc\\.mac$",
                "^com\\.microsoft\\.rdc\\.macos$",
                "^com\\.microsoft\\.rdc\\.osx\\.beta$",
                "^net\\.sf\\.cord$",
                "^com\\.thinomenon\\.RemoteDesktopConnection$",
                "^com\\.itap-mobile\\.qmote$",
                "^com\\.nulana\\.remotixmac$",
                "^com\\.p5sys\\.jump\\.mac\\.viewer$",
                "^com\\.p5sys\\.jump\\.mac\\.viewer\\.web$",
                "^com\\.teamviewer\\.TeamViewer$",
                "^com\\.vmware\\.horizon$",
                "^com\\.2X\\.Client\\.Mac$",
                "^com\\.vmware\\.fusion$",
                "^com\\.vmware\\.horizon$",
                "^com\\.vmware\\.view$",
                "^com\\.parallels\\.desktop$",
                "^com\\.parallels\\.vm$",
                "^com\\.parallels\\.desktop\\.console$",
                "^org\\.virtualbox\\.app\\.VirtualBoxVM$",
                "^com\\.citrix\\.XenAppViewer$",
                "^com\\.vmware\\.proxyApp\\.",
                "^com\\.parallels\\.winapp\\.",
                "^com\\.apple\\.Terminal$",
                "^com\\.googlecode\\.iterm2$",
                "^co\\.zeit\\.hyperterm$",
                "^co\\.zeit\\.hyper$",
                "^io\\.alacritty$",
                "^net\\.kovidgoyal\\.kitty$"
              ]
            }
          ]
        }
      ]
    },
    {
      "description": "PC-Style Reload(F5, Ctrl+R)",
      "manipulators": [
        {
          "type": "basic",
          "from": {
            "key_code": "r",
            "modifiers": {
              "mandatory": [
                "control"
              ],
              "optional": [
                "any"
              ]
            }
          },
          "to": [
            {
              "key_code": "r",
              "modifiers": [
                "left_command"
              ]
            }
          ],
          "conditions": [
            {
              "type": "frontmost_application_unless",
              "bundle_identifiers": [
                "^com\\.microsoft\\.rdc$",
                "^com\\.microsoft\\.rdc\\.mac$",
                "^com\\.microsoft\\.rdc\\.macos$",
                "^com\\.microsoft\\.rdc\\.osx\\.beta$",
                "^net\\.sf\\.cord$",
                "^com\\.thinomenon\\.RemoteDesktopConnection$",
                "^com\\.itap-mobile\\.qmote$",
                "^com\\.nulana\\.remotixmac$",
                "^com\\.p5sys\\.jump\\.mac\\.viewer$",
                "^com\\.p5sys\\.jump\\.mac\\.viewer\\.web$",
                "^com\\.teamviewer\\.TeamViewer$",
                "^com\\.vmware\\.horizon$",
                "^com\\.2X\\.Client\\.Mac$",
                "^com\\.vmware\\.fusion$",
                "^com\\.vmware\\.horizon$",
                "^com\\.vmware\\.view$",
                "^com\\.parallels\\.desktop$",
                "^com\\.parallels\\.vm$",
                "^com\\.parallels\\.desktop\\.console$",
                "^org\\.virtualbox\\.app\\.VirtualBoxVM$",
                "^com\\.citrix\\.XenAppViewer$",
                "^com\\.vmware\\.proxyApp\\.",
                "^com\\.parallels\\.winapp\\.",
                "^com\\.apple\\.Terminal$",
                "^com\\.googlecode\\.iterm2$",
                "^co\\.zeit\\.hyperterm$",
                "^co\\.zeit\\.hyper$",
                "^io\\.alacritty$",
                "^net\\.kovidgoyal\\.kitty$"
              ]
            }
          ]
        },
        {
          "type": "basic",
          "from": {
            "key_code": "f5",
            "modifiers": {
              "optional": [
                "any"
              ]
            }
          },
          "to": [
            {
              "key_code": "r",
              "modifiers": [
                "left_command"
              ]
            }
          ],
          "conditions": [
            {
              "type": "frontmost_application_unless",
              "bundle_identifiers": [
                "^com\\.microsoft\\.rdc$",
                "^com\\.microsoft\\.rdc\\.mac$",
                "^com\\.microsoft\\.rdc\\.macos$",
                "^com\\.microsoft\\.rdc\\.osx\\.beta$",
                "^net\\.sf\\.cord$",
                "^com\\.thinomenon\\.RemoteDesktopConnection$",
                "^com\\.itap-mobile\\.qmote$",
                "^com\\.nulana\\.remotixmac$",
                "^com\\.p5sys\\.jump\\.mac\\.viewer$",
                "^com\\.p5sys\\.jump\\.mac\\.viewer\\.web$",
                "^com\\.teamviewer\\.TeamViewer$",
                "^com\\.vmware\\.horizon$",
                "^com\\.2X\\.Client\\.Mac$",
                "^com\\.vmware\\.fusion$",
                "^com\\.vmware\\.horizon$",
                "^com\\.vmware\\.view$",
                "^com\\.parallels\\.desktop$",
                "^com\\.parallels\\.vm$",
                "^com\\.parallels\\.desktop\\.console$",
                "^org\\.virtualbox\\.app\\.VirtualBoxVM$",
                "^com\\.citrix\\.XenAppViewer$",
                "^com\\.vmware\\.proxyApp\\.",
                "^com\\.parallels\\.winapp\\.",
                "^com\\.apple\\.Terminal$",
                "^com\\.googlecode\\.iterm2$",
                "^co\\.zeit\\.hyperterm$",
                "^co\\.zeit\\.hyper$",
                "^io\\.alacritty$",
                "^net\\.kovidgoyal\\.kitty$",
				"^com\\.continuum\\.python$"
              ]
            }
          ]
        }
      ]
    },
    {
      "description": "PC-Style New Tab",
      "manipulators": [
        {
          "type": "basic",
          "from": {
            "key_code": "t",
            "modifiers": {
              "mandatory": [
                "control"
              ],
              "optional": [
                "any"
              ]
            }
          },
          "to": [
            {
              "key_code": "t",
              "modifiers": [
                "left_command"
              ]
            }
          ],
          "conditions": [
            {
              "type": "frontmost_application_unless",
              "bundle_identifiers": [
                "^com\\.microsoft\\.rdc$",
                "^com\\.microsoft\\.rdc\\.mac$",
                "^com\\.microsoft\\.rdc\\.macos$",
                "^com\\.microsoft\\.rdc\\.osx\\.beta$",
                "^net\\.sf\\.cord$",
                "^com\\.thinomenon\\.RemoteDesktopConnection$",
                "^com\\.itap-mobile\\.qmote$",
                "^com\\.nulana\\.remotixmac$",
                "^com\\.p5sys\\.jump\\.mac\\.viewer$",
                "^com\\.p5sys\\.jump\\.mac\\.viewer\\.web$",
                "^com\\.teamviewer\\.TeamViewer$",
                "^com\\.vmware\\.horizon$",
                "^com\\.2X\\.Client\\.Mac$",
                "^com\\.vmware\\.fusion$",
                "^com\\.vmware\\.horizon$",
                "^com\\.vmware\\.view$",
                "^com\\.parallels\\.desktop$",
                "^com\\.parallels\\.vm$",
                "^com\\.parallels\\.desktop\\.console$",
                "^org\\.virtualbox\\.app\\.VirtualBoxVM$",
                "^com\\.citrix\\.XenAppViewer$",
                "^com\\.vmware\\.proxyApp\\.",
                "^com\\.parallels\\.winapp\\.",
                "^com\\.apple\\.Terminal$",
                "^com\\.googlecode\\.iterm2$",
                "^co\\.zeit\\.hyperterm$",
                "^co\\.zeit\\.hyper$",
                "^io\\.alacritty$",
                "^net\\.kovidgoyal\\.kitty$"
              ]
            }
          ]
        }
      ]
    },
    {
      "description": "PC-Style Find",
      "manipulators": [
        {
          "type": "basic",
          "from": {
            "key_code": "f",
            "modifiers": {
              "mandatory": [
                "control"
              ],
              "optional": [
                "any"
              ]
            }
          },
          "to": [
            {
              "key_code": "f",
              "modifiers": [
                "left_command"
              ]
            }
          ],
          "conditions": [
            {
              "type": "frontmost_application_unless",
              "bundle_identifiers": [
                "^com\\.microsoft\\.rdc$",
                "^com\\.microsoft\\.rdc\\.mac$",
                "^com\\.microsoft\\.rdc\\.macos$",
                "^com\\.microsoft\\.rdc\\.osx\\.beta$",
                "^net\\.sf\\.cord$",
                "^com\\.thinomenon\\.RemoteDesktopConnection$",
                "^com\\.itap-mobile\\.qmote$",
                "^com\\.nulana\\.remotixmac$",
                "^com\\.p5sys\\.jump\\.mac\\.viewer$",
                "^com\\.p5sys\\.jump\\.mac\\.viewer\\.web$",
                "^com\\.teamviewer\\.TeamViewer$",
                "^com\\.vmware\\.horizon$",
                "^com\\.2X\\.Client\\.Mac$",
                "^com\\.vmware\\.fusion$",
                "^com\\.vmware\\.horizon$",
                "^com\\.vmware\\.view$",
                "^com\\.parallels\\.desktop$",
                "^com\\.parallels\\.vm$",
                "^com\\.parallels\\.desktop\\.console$",
                "^org\\.virtualbox\\.app\\.VirtualBoxVM$",
                "^com\\.citrix\\.XenAppViewer$",
                "^com\\.vmware\\.proxyApp\\.",
                "^com\\.parallels\\.winapp\\.",
                "^com\\.apple\\.Terminal$",
                "^com\\.googlecode\\.iterm2$",
                "^co\\.zeit\\.hyperterm$",
                "^co\\.zeit\\.hyper$",
                "^io\\.alacritty$",
                "^net\\.kovidgoyal\\.kitty$"
              ]
            }
          ]
        },
        {
          "type": "basic",
          "from": {
            "key_code": "g",
            "modifiers": {
              "mandatory": [
                "control"
              ],
              "optional": [
                "any"
              ]
            }
          },
          "to": [
            {
              "key_code": "g",
              "modifiers": [
                "left_command"
              ]
            }
          ],
          "conditions": [
            {
              "type": "frontmost_application_unless",
              "bundle_identifiers": [
                "^com\\.microsoft\\.rdc$",
                "^com\\.microsoft\\.rdc\\.mac$",
                "^com\\.microsoft\\.rdc\\.macos$",
                "^com\\.microsoft\\.rdc\\.osx\\.beta$",
                "^net\\.sf\\.cord$",
                "^com\\.thinomenon\\.RemoteDesktopConnection$",
                "^com\\.itap-mobile\\.qmote$",
                "^com\\.nulana\\.remotixmac$",
                "^com\\.p5sys\\.jump\\.mac\\.viewer$",
                "^com\\.p5sys\\.jump\\.mac\\.viewer\\.web$",
                "^com\\.teamviewer\\.TeamViewer$",
                "^com\\.vmware\\.horizon$",
                "^com\\.2X\\.Client\\.Mac$",
                "^com\\.vmware\\.fusion$",
                "^com\\.vmware\\.horizon$",
                "^com\\.vmware\\.view$",
                "^com\\.parallels\\.desktop$",
                "^com\\.parallels\\.vm$",
                "^com\\.parallels\\.desktop\\.console$",
                "^org\\.virtualbox\\.app\\.VirtualBoxVM$",
                "^com\\.citrix\\.XenAppViewer$",
                "^com\\.vmware\\.proxyApp\\.",
                "^com\\.parallels\\.winapp\\.",
                "^com\\.apple\\.Terminal$",
                "^com\\.googlecode\\.iterm2$",
                "^co\\.zeit\\.hyperterm$",
                "^co\\.zeit\\.hyper$",
                "^io\\.alacritty$",
                "^net\\.kovidgoyal\\.kitty$"
              ]
            }
          ]
        }
      ]
    },
    {
      "description": "PC-Style Open",
      "manipulators": [
        {
          "type": "basic",
          "from": {
            "key_code": "o",
            "modifiers": {
              "mandatory": [
                "control"
              ],
              "optional": [
                "any"
              ]
            }
          },
          "to": [
            {
              "key_code": "o",
              "modifiers": [
                "left_command"
              ]
            }
          ],
          "conditions": [
            {
              "type": "frontmost_application_unless",
              "bundle_identifiers": [
                "^com\\.microsoft\\.rdc$",
                "^com\\.microsoft\\.rdc\\.mac$",
                "^com\\.microsoft\\.rdc\\.macos$",
                "^com\\.microsoft\\.rdc\\.osx\\.beta$",
                "^net\\.sf\\.cord$",
                "^com\\.thinomenon\\.RemoteDesktopConnection$",
                "^com\\.itap-mobile\\.qmote$",
                "^com\\.nulana\\.remotixmac$",
                "^com\\.p5sys\\.jump\\.mac\\.viewer$",
                "^com\\.p5sys\\.jump\\.mac\\.viewer\\.web$",
                "^com\\.teamviewer\\.TeamViewer$",
                "^com\\.vmware\\.horizon$",
                "^com\\.2X\\.Client\\.Mac$",
                "^com\\.vmware\\.fusion$",
                "^com\\.vmware\\.horizon$",
                "^com\\.vmware\\.view$",
                "^com\\.parallels\\.desktop$",
                "^com\\.parallels\\.vm$",
                "^com\\.parallels\\.desktop\\.console$",
                "^org\\.virtualbox\\.app\\.VirtualBoxVM$",
                "^com\\.citrix\\.XenAppViewer$",
                "^com\\.vmware\\.proxyApp\\.",
                "^com\\.parallels\\.winapp\\.",
                "^com\\.apple\\.Terminal$",
                "^com\\.googlecode\\.iterm2$",
                "^co\\.zeit\\.hyperterm$",
                "^co\\.zeit\\.hyper$",
                "^io\\.alacritty$",
                "^net\\.kovidgoyal\\.kitty$"
              ]
            }
          ]
        }
      ]
    },
    {
      "description": "PC-Style Bold/Italic/Underline(Ctrl+B/I/U)",
      "manipulators": [
        {
          "type": "basic",
          "from": {
            "key_code": "b",
            "modifiers": {
              "mandatory": [
                "control"
              ],
              "optional": [
                "any"
              ]
            }
          },
          "to": [
            {
              "key_code": "b",
              "modifiers": [
                "left_command"
              ]
            }
          ],
          "conditions": [
            {
              "type": "frontmost_application_unless",
              "bundle_identifiers": [
                "^com\\.microsoft\\.rdc$",
                "^com\\.microsoft\\.rdc\\.mac$",
                "^com\\.microsoft\\.rdc\\.macos$",
                "^com\\.microsoft\\.rdc\\.osx\\.beta$",
                "^net\\.sf\\.cord$",
                "^com\\.thinomenon\\.RemoteDesktopConnection$",
                "^com\\.itap-mobile\\.qmote$",
                "^com\\.nulana\\.remotixmac$",
                "^com\\.p5sys\\.jump\\.mac\\.viewer$",
                "^com\\.p5sys\\.jump\\.mac\\.viewer\\.web$",
                "^com\\.teamviewer\\.TeamViewer$",
                "^com\\.vmware\\.horizon$",
                "^com\\.2X\\.Client\\.Mac$",
                "^com\\.vmware\\.fusion$",
                "^com\\.vmware\\.horizon$",
                "^com\\.vmware\\.view$",
                "^com\\.parallels\\.desktop$",
                "^com\\.parallels\\.vm$",
                "^com\\.parallels\\.desktop\\.console$",
                "^org\\.virtualbox\\.app\\.VirtualBoxVM$",
                "^com\\.citrix\\.XenAppViewer$",
                "^com\\.vmware\\.proxyApp\\.",
                "^com\\.parallels\\.winapp\\.",
                "^com\\.apple\\.Terminal$",
                "^com\\.googlecode\\.iterm2$",
                "^co\\.zeit\\.hyperterm$",
                "^co\\.zeit\\.hyper$",
                "^io\\.alacritty$",
                "^net\\.kovidgoyal\\.kitty$"
              ]
            }
          ]
        },
        {
          "type": "basic",
          "from": {
            "key_code": "i",
            "modifiers": {
              "mandatory": [
                "control"
              ],
              "optional": [
                "any"
              ]
            }
          },
          "to": [
            {
              "key_code": "i",
              "modifiers": [
                "left_command"
              ]
            }
          ],
          "conditions": [
            {
              "type": "frontmost_application_unless",
              "bundle_identifiers": [
                "^com\\.microsoft\\.rdc$",
                "^com\\.microsoft\\.rdc\\.mac$",
                "^com\\.microsoft\\.rdc\\.macos$",
                "^com\\.microsoft\\.rdc\\.osx\\.beta$",
                "^net\\.sf\\.cord$",
                "^com\\.thinomenon\\.RemoteDesktopConnection$",
                "^com\\.itap-mobile\\.qmote$",
                "^com\\.nulana\\.remotixmac$",
                "^com\\.p5sys\\.jump\\.mac\\.viewer$",
                "^com\\.p5sys\\.jump\\.mac\\.viewer\\.web$",
                "^com\\.teamviewer\\.TeamViewer$",
                "^com\\.vmware\\.horizon$",
                "^com\\.2X\\.Client\\.Mac$",
                "^com\\.vmware\\.fusion$",
                "^com\\.vmware\\.horizon$",
                "^com\\.vmware\\.view$",
                "^com\\.parallels\\.desktop$",
                "^com\\.parallels\\.vm$",
                "^com\\.parallels\\.desktop\\.console$",
                "^org\\.virtualbox\\.app\\.VirtualBoxVM$",
                "^com\\.citrix\\.XenAppViewer$",
                "^com\\.vmware\\.proxyApp\\.",
                "^com\\.parallels\\.winapp\\.",
                "^com\\.apple\\.Terminal$",
                "^com\\.googlecode\\.iterm2$",
                "^co\\.zeit\\.hyperterm$",
                "^co\\.zeit\\.hyper$",
                "^io\\.alacritty$",
                "^net\\.kovidgoyal\\.kitty$"
              ]
            }
          ]
        },
        {
          "type": "basic",
          "from": {
            "key_code": "u",
            "modifiers": {
              "mandatory": [
                "control"
              ],
              "optional": [
                "any"
              ]
            }
          },
          "to": [
            {
              "key_code": "u",
              "modifiers": [
                "left_command"
              ]
            }
          ],
          "conditions": [
            {
              "type": "frontmost_application_unless",
              "bundle_identifiers": [
                "^com\\.microsoft\\.rdc$",
                "^com\\.microsoft\\.rdc\\.mac$",
                "^com\\.microsoft\\.rdc\\.macos$",
                "^com\\.microsoft\\.rdc\\.osx\\.beta$",
                "^net\\.sf\\.cord$",
                "^com\\.thinomenon\\.RemoteDesktopConnection$",
                "^com\\.itap-mobile\\.qmote$",
                "^com\\.nulana\\.remotixmac$",
                "^com\\.p5sys\\.jump\\.mac\\.viewer$",
                "^com\\.p5sys\\.jump\\.mac\\.viewer\\.web$",
                "^com\\.teamviewer\\.TeamViewer$",
                "^com\\.vmware\\.horizon$",
                "^com\\.2X\\.Client\\.Mac$",
                "^com\\.vmware\\.fusion$",
                "^com\\.vmware\\.horizon$",
                "^com\\.vmware\\.view$",
                "^com\\.parallels\\.desktop$",
                "^com\\.parallels\\.vm$",
                "^com\\.parallels\\.desktop\\.console$",
                "^org\\.virtualbox\\.app\\.VirtualBoxVM$",
                "^com\\.citrix\\.XenAppViewer$",
                "^com\\.vmware\\.proxyApp\\.",
                "^com\\.parallels\\.winapp\\.",
                "^com\\.apple\\.Terminal$",
                "^com\\.googlecode\\.iterm2$",
                "^co\\.zeit\\.hyperterm$",
                "^co\\.zeit\\.hyper$",
                "^io\\.alacritty$",
                "^net\\.kovidgoyal\\.kitty$"
              ]
            }
          ]
        }
      ]
    },
    {
      "description": "PC-Style Close Window",
      "manipulators": [
        {
          "type": "basic",
          "from": {
            "key_code": "w",
            "modifiers": {
              "mandatory": [
                "control"
              ],
              "optional": [
                "any"
              ]
            }
          },
          "to": [
            {
              "key_code": "w",
              "modifiers": [
                "left_command"
              ]
            }
          ],
          "conditions": [
            {
              "type": "frontmost_application_unless",
              "bundle_identifiers": [
                "^com\\.microsoft\\.rdc$",
                "^com\\.microsoft\\.rdc\\.mac$",
                "^com\\.microsoft\\.rdc\\.macos$",
                "^com\\.microsoft\\.rdc\\.osx\\.beta$",
                "^net\\.sf\\.cord$",
                "^com\\.thinomenon\\.RemoteDesktopConnection$",
                "^com\\.itap-mobile\\.qmote$",
                "^com\\.nulana\\.remotixmac$",
                "^com\\.p5sys\\.jump\\.mac\\.viewer$",
                "^com\\.p5sys\\.jump\\.mac\\.viewer\\.web$",
                "^com\\.teamviewer\\.TeamViewer$",
                "^com\\.vmware\\.horizon$",
                "^com\\.2X\\.Client\\.Mac$",
                "^com\\.vmware\\.fusion$",
                "^com\\.vmware\\.horizon$",
                "^com\\.vmware\\.view$",
                "^com\\.parallels\\.desktop$",
                "^com\\.parallels\\.vm$",
                "^com\\.parallels\\.desktop\\.console$",
                "^org\\.virtualbox\\.app\\.VirtualBoxVM$",
                "^com\\.citrix\\.XenAppViewer$",
                "^com\\.vmware\\.proxyApp\\.",
                "^com\\.parallels\\.winapp\\.",
                "^com\\.apple\\.Terminal$",
                "^com\\.googlecode\\.iterm2$",
                "^co\\.zeit\\.hyperterm$",
                "^co\\.zeit\\.hyper$",
                "^io\\.alacritty$",
                "^net\\.kovidgoyal\\.kitty$"
              ]
            }
          ]
        }
      ]
    },
    {
      "description": "PC-Style Lock Screen",
      "manipulators": [
        {
          "type": "basic",
          "from": {
            "key_code": "l",
            "modifiers": {
              "mandatory": [
                "command"
              ]
            }
          },
          "to": [
            {
              "key_code": "power",
              "modifiers": [
                "left_control",
                "left_shift"
              ]
            }
          ],
          "conditions": [
            {
              "type": "frontmost_application_unless",
              "bundle_identifiers": [
                "^com\\.microsoft\\.rdc$",
                "^com\\.microsoft\\.rdc\\.mac$",
                "^com\\.microsoft\\.rdc\\.macos$",
                "^com\\.microsoft\\.rdc\\.osx\\.beta$",
                "^net\\.sf\\.cord$",
                "^com\\.thinomenon\\.RemoteDesktopConnection$",
                "^com\\.itap-mobile\\.qmote$",
                "^com\\.nulana\\.remotixmac$",
                "^com\\.p5sys\\.jump\\.mac\\.viewer$",
                "^com\\.p5sys\\.jump\\.mac\\.viewer\\.web$",
                "^com\\.teamviewer\\.TeamViewer$",
                "^com\\.vmware\\.horizon$",
                "^com\\.2X\\.Client\\.Mac$",
                "^com\\.vmware\\.fusion$",
                "^com\\.vmware\\.horizon$",
                "^com\\.vmware\\.view$",
                "^com\\.parallels\\.desktop$",
                "^com\\.parallels\\.vm$",
                "^com\\.parallels\\.desktop\\.console$",
                "^org\\.virtualbox\\.app\\.VirtualBoxVM$",
                "^com\\.citrix\\.XenAppViewer$",
                "^com\\.vmware\\.proxyApp\\.",
                "^com\\.parallels\\.winapp\\."
              ]
            }
          ]
        }
      ]
    },
    {
      "description": "PC-Style Screenshot to File (PrintScreen to select)",
      "manipulators": [
        {
          "type": "basic",
          "from": {
            "key_code": "print_screen",
            "modifiers": {
              "optional": [
                "any"
              ]
            }
          },
          "to": [
            {
              "key_code": "4",
              "modifiers": [
                "left_command",
                "left_shift"
              ]
            }
          ],
          "conditions": [
            {
              "type": "frontmost_application_unless",
              "bundle_identifiers": [
                "^com\\.microsoft\\.rdc$",
                "^com\\.microsoft\\.rdc\\.mac$",
                "^com\\.microsoft\\.rdc\\.macos$",
                "^com\\.microsoft\\.rdc\\.osx\\.beta$",
                "^net\\.sf\\.cord$",
                "^com\\.thinomenon\\.RemoteDesktopConnection$",
                "^com\\.itap-mobile\\.qmote$",
                "^com\\.nulana\\.remotixmac$",
                "^com\\.p5sys\\.jump\\.mac\\.viewer$",
                "^com\\.p5sys\\.jump\\.mac\\.viewer\\.web$",
                "^com\\.teamviewer\\.TeamViewer$",
                "^com\\.vmware\\.horizon$",
                "^com\\.2X\\.Client\\.Mac$",
                "^com\\.vmware\\.fusion$",
                "^com\\.vmware\\.horizon$",
                "^com\\.vmware\\.view$",
                "^com\\.parallels\\.desktop$",
                "^com\\.parallels\\.vm$",
                "^com\\.parallels\\.desktop\\.console$",
                "^org\\.virtualbox\\.app\\.VirtualBoxVM$",
                "^com\\.citrix\\.XenAppViewer$",
                "^com\\.vmware\\.proxyApp\\.",
                "^com\\.parallels\\.winapp\\."
              ]
            }
          ]
        }
      ]
    },
    {
      "description": "PC-Style Screenshot to Clipboard (PrintScreen to select)",
      "manipulators": [
        {
          "type": "basic",
          "from": {
            "key_code": "print_screen",
            "modifiers": {
              "optional": [
                "any"
              ]
            }
          },
          "to": [
            {
              "key_code": "4",
              "modifiers": [
                "left_command",
                "left_control",
                "left_shift"
              ]
            }
          ],
          "conditions": [
            {
              "type": "frontmost_application_unless",
              "bundle_identifiers": [
                "^com\\.microsoft\\.rdc$",
                "^com\\.microsoft\\.rdc\\.mac$",
                "^com\\.microsoft\\.rdc\\.macos$",
                "^com\\.microsoft\\.rdc\\.osx\\.beta$",
                "^net\\.sf\\.cord$",
                "^com\\.thinomenon\\.RemoteDesktopConnection$",
                "^com\\.itap-mobile\\.qmote$",
                "^com\\.nulana\\.remotixmac$",
                "^com\\.p5sys\\.jump\\.mac\\.viewer$",
                "^com\\.p5sys\\.jump\\.mac\\.viewer\\.web$",
                "^com\\.teamviewer\\.TeamViewer$",
                "^com\\.vmware\\.horizon$",
                "^com\\.2X\\.Client\\.Mac$",
                "^com\\.vmware\\.fusion$",
                "^com\\.vmware\\.horizon$",
                "^com\\.vmware\\.view$",
                "^com\\.parallels\\.desktop$",
                "^com\\.parallels\\.vm$",
                "^com\\.parallels\\.desktop\\.console$",
                "^org\\.virtualbox\\.app\\.VirtualBoxVM$",
                "^com\\.citrix\\.XenAppViewer$",
                "^com\\.vmware\\.proxyApp\\.",
                "^com\\.parallels\\.winapp\\."
              ]
            }
          ]
        }
      ]
    },
    {
      "description": "PC-Style Screenshot (PrintScreen for whole, Shift+PrintScreen to select)",
      "manipulators": [
        {
          "type": "basic",
          "from": {
            "key_code": "print_screen",
            "modifiers": {
              "mandatory": [
                "shift"
              ],
              "optional": [
                "any"
              ]
            }
          },
          "to": [
            {
              "key_code": "4",
              "modifiers": [
                "left_command",
                "left_shift"
              ]
            }
          ],
          "conditions": [
            {
              "type": "frontmost_application_unless",
              "bundle_identifiers": [
                "^com\\.microsoft\\.rdc$",
                "^com\\.microsoft\\.rdc\\.mac$",
                "^com\\.microsoft\\.rdc\\.macos$",
                "^com\\.microsoft\\.rdc\\.osx\\.beta$",
                "^net\\.sf\\.cord$",
                "^com\\.thinomenon\\.RemoteDesktopConnection$",
                "^com\\.itap-mobile\\.qmote$",
                "^com\\.nulana\\.remotixmac$",
                "^com\\.p5sys\\.jump\\.mac\\.viewer$",
                "^com\\.p5sys\\.jump\\.mac\\.viewer\\.web$",
                "^com\\.teamviewer\\.TeamViewer$",
                "^com\\.vmware\\.horizon$",
                "^com\\.2X\\.Client\\.Mac$",
                "^com\\.vmware\\.fusion$",
                "^com\\.vmware\\.horizon$",
                "^com\\.vmware\\.view$",
                "^com\\.parallels\\.desktop$",
                "^com\\.parallels\\.vm$",
                "^com\\.parallels\\.desktop\\.console$",
                "^org\\.virtualbox\\.app\\.VirtualBoxVM$",
                "^com\\.citrix\\.XenAppViewer$",
                "^com\\.vmware\\.proxyApp\\.",
                "^com\\.parallels\\.winapp\\."
              ]
            }
          ]
        },
        {
          "type": "basic",
          "from": {
            "key_code": "print_screen",
            "modifiers": {
              "optional": [
                "any"
              ]
            }
          },
          "to": [
            {
              "key_code": "3",
              "modifiers": [
                "left_command",
                "left_shift"
              ]
            }
          ],
          "conditions": [
            {
              "type": "frontmost_application_unless",
              "bundle_identifiers": [
                "^com\\.microsoft\\.rdc$",
                "^com\\.microsoft\\.rdc\\.mac$",
                "^com\\.microsoft\\.rdc\\.macos$",
                "^com\\.microsoft\\.rdc\\.osx\\.beta$",
                "^net\\.sf\\.cord$",
                "^com\\.thinomenon\\.RemoteDesktopConnection$",
                "^com\\.itap-mobile\\.qmote$",
                "^com\\.nulana\\.remotixmac$",
                "^com\\.p5sys\\.jump\\.mac\\.viewer$",
                "^com\\.p5sys\\.jump\\.mac\\.viewer\\.web$",
                "^com\\.teamviewer\\.TeamViewer$",
                "^com\\.vmware\\.horizon$",
                "^com\\.2X\\.Client\\.Mac$",
                "^com\\.vmware\\.fusion$",
                "^com\\.vmware\\.horizon$",
                "^com\\.vmware\\.view$",
                "^com\\.parallels\\.desktop$",
                "^com\\.parallels\\.vm$",
                "^com\\.parallels\\.desktop\\.console$",
                "^org\\.virtualbox\\.app\\.VirtualBoxVM$",
                "^com\\.citrix\\.XenAppViewer$",
                "^com\\.vmware\\.proxyApp\\.",
                "^com\\.parallels\\.winapp\\."
              ]
            }
          ]
        }
      ]
    },
    {
      "description": "PC-Style Quit Application (Alt+F4 to Command+Q)",
      "manipulators": [
        {
          "type": "basic",
          "from": {
            "key_code": "f4",
            "modifiers": {
              "mandatory": [
                "option"
              ]
            }
          },
          "to": [
            {
              "key_code": "q",
              "modifiers": [
                "left_command"
              ]
            }
          ],
          "conditions": [
            {
              "type": "frontmost_application_unless",
              "bundle_identifiers": [
                "^com\\.microsoft\\.rdc$",
                "^com\\.microsoft\\.rdc\\.mac$",
                "^com\\.microsoft\\.rdc\\.macos$",
                "^com\\.microsoft\\.rdc\\.osx\\.beta$",
                "^net\\.sf\\.cord$",
                "^com\\.thinomenon\\.RemoteDesktopConnection$",
                "^com\\.itap-mobile\\.qmote$",
                "^com\\.nulana\\.remotixmac$",
                "^com\\.p5sys\\.jump\\.mac\\.viewer$",
                "^com\\.p5sys\\.jump\\.mac\\.viewer\\.web$",
                "^com\\.teamviewer\\.TeamViewer$",
                "^com\\.vmware\\.horizon$",
                "^com\\.2X\\.Client\\.Mac$",
                "^com\\.vmware\\.fusion$",
                "^com\\.vmware\\.horizon$",
                "^com\\.vmware\\.view$",
                "^com\\.parallels\\.desktop$",
                "^com\\.parallels\\.vm$",
                "^com\\.parallels\\.desktop\\.console$",
                "^org\\.virtualbox\\.app\\.VirtualBoxVM$",
                "^com\\.citrix\\.XenAppViewer$",
                "^com\\.vmware\\.proxyApp\\.",
                "^com\\.parallels\\.winapp\\."
              ]
            }
          ]
        }
      ]
    },
    {
      "description": "Control+Shift+Esc Opens Activity Monitor",
      "manipulators": [
        {
          "type": "basic",
          "from": {
            "key_code": "escape",
            "modifiers": {
              "mandatory": [
                "control",
                "shift"
              ]
            }
          },
          "to": [
            {
              "shell_command": "open -a 'Activity Monitor.app'"
            }
          ],
          "conditions": [
            {
              "type": "frontmost_application_unless",
              "bundle_identifiers": [
                "^com\\.microsoft\\.rdc$",
                "^com\\.microsoft\\.rdc\\.mac$",
                "^com\\.microsoft\\.rdc\\.macos$",
                "^com\\.microsoft\\.rdc\\.osx\\.beta$",
                "^net\\.sf\\.cord$",
                "^com\\.thinomenon\\.RemoteDesktopConnection$",
                "^com\\.itap-mobile\\.qmote$",
                "^com\\.nulana\\.remotixmac$",
                "^com\\.p5sys\\.jump\\.mac\\.viewer$",
                "^com\\.p5sys\\.jump\\.mac\\.viewer\\.web$",
                "^com\\.teamviewer\\.TeamViewer$",
                "^com\\.vmware\\.horizon$",
                "^com\\.2X\\.Client\\.Mac$",
                "^com\\.vmware\\.fusion$",
                "^com\\.vmware\\.horizon$",
                "^com\\.vmware\\.view$",
                "^com\\.parallels\\.desktop$",
                "^com\\.parallels\\.vm$",
                "^com\\.parallels\\.desktop\\.console$",
                "^org\\.virtualbox\\.app\\.VirtualBoxVM$",
                "^com\\.citrix\\.XenAppViewer$",
                "^com\\.vmware\\.proxyApp\\.",
                "^com\\.parallels\\.winapp\\."
              ]
            }
          ]
        }
      ]
    },
    {
      "description": "PC-Style Browser open location (Ctrl+L)",
      "manipulators": [
        {
          "type": "basic",
          "from": {
            "key_code": "l",
            "modifiers": {
              "mandatory": [
                "control"
              ],
              "optional": [
                "any"
              ]
            }
          },
          "to": [
            {
              "key_code": "l",
              "modifiers": [
                "left_command"
              ]
            }
          ],
          "conditions": [
            {
              "type": "frontmost_application_if",
              "bundle_identifiers": [
                "^org\\.mozilla\\.firefox$",
                "^com\\.google\\.Chrome$",
                "^com\\.apple\\.Safari$"
              ]
            }
          ]
        }
      ]
    },
    {
      "description": "PC-Style Back/Forward (Alt+Left Arrow/Alt+Right Arrow)",
      "manipulators": [
        {
          "type": "basic",
          "from": {
            "key_code": "left_arrow",
            "modifiers": {
              "mandatory": [
                "option"
              ],
              "optional": [
                "any"
              ]
            }
          },
          "to": [
            {
              "key_code": "left_arrow",
              "modifiers": [
                "left_command"
              ]
            }
          ],
          "conditions": [
            {
              "type": "frontmost_application_if",
              "bundle_identifiers": [
                "^org\\.mozilla\\.firefox$",
                "^com\\.google\\.Chrome$",
                "^com\\.apple\\.Safari$"
              ]
            }
          ]
        },
        {
          "type": "basic",
          "from": {
            "key_code": "right_arrow",
            "modifiers": {
              "mandatory": [
                "option"
              ],
              "optional": [
                "any"
              ]
            }
          },
          "to": [
            {
              "key_code": "right_arrow",
              "modifiers": [
                "left_command"
              ]
            }
          ],
          "conditions": [
            {
              "type": "frontmost_application_if",
              "bundle_identifiers": [
                "^org\\.mozilla\\.firefox$",
                "^com\\.google\\.Chrome$",
                "^com\\.apple\\.Safari$"
              ]
            }
          ]
        }
      ]
    },
    {
      "description": "PC-Style Browser Zoom (Ctrl+Plus/Minus/0)",
      "manipulators": [
        {
          "type": "basic",
          "from": {
            "key_code": "hyphen",
            "modifiers": {
              "mandatory": [
                "control"
              ],
              "optional": [
                "any"
              ]
            }
          },
          "to": [
            {
              "key_code": "hyphen",
              "modifiers": [
                "left_command"
              ]
            }
          ],
          "conditions": [
            {
              "type": "frontmost_application_if",
              "bundle_identifiers": [
                "^org\\.mozilla\\.firefox$",
                "^com\\.google\\.Chrome$",
                "^com\\.apple\\.Safari$"
              ]
            }
          ]
        },
        {
          "type": "basic",
          "from": {
            "key_code": "keypad_hyphen",
            "modifiers": {
              "mandatory": [
                "control"
              ],
              "optional": [
                "any"
              ]
            }
          },
          "to": [
            {
              "key_code": "keypad_hyphen",
              "modifiers": [
                "left_command"
              ]
            }
          ],
          "conditions": [
            {
              "type": "frontmost_application_if",
              "bundle_identifiers": [
                "^org\\.mozilla\\.firefox$",
                "^com\\.google\\.Chrome$",
                "^com\\.apple\\.Safari$"
              ]
            }
          ]
        },
        {
          "type": "basic",
          "from": {
            "key_code": "equal_sign",
            "modifiers": {
              "mandatory": [
                "control"
              ],
              "optional": [
                "any"
              ]
            }
          },
          "to": [
            {
              "key_code": "equal_sign",
              "modifiers": [
                "left_command"
              ]
            }
          ],
          "conditions": [
            {
              "type": "frontmost_application_if",
              "bundle_identifiers": [
                "^org\\.mozilla\\.firefox$",
                "^com\\.google\\.Chrome$",
                "^com\\.apple\\.Safari$"
              ]
            }
          ]
        },
        {
          "type": "basic",
          "from": {
            "key_code": "keypad_plus",
            "modifiers": {
              "mandatory": [
                "control"
              ],
              "optional": [
                "any"
              ]
            }
          },
          "to": [
            {
              "key_code": "keypad_plus",
              "modifiers": [
                "left_command"
              ]
            }
          ],
          "conditions": [
            {
              "type": "frontmost_application_if",
              "bundle_identifiers": [
                "^org\\.mozilla\\.firefox$",
                "^com\\.google\\.Chrome$",
                "^com\\.apple\\.Safari$"
              ]
            }
          ]
        },
        {
          "type": "basic",
          "from": {
            "key_code": "0",
            "modifiers": {
              "mandatory": [
                "control"
              ],
              "optional": [
                "any"
              ]
            }
          },
          "to": [
            {
              "key_code": "0",
              "modifiers": [
                "left_command"
              ]
            }
          ],
          "conditions": [
            {
              "type": "frontmost_application_if",
              "bundle_identifiers": [
                "^org\\.mozilla\\.firefox$",
                "^com\\.google\\.Chrome$",
                "^com\\.apple\\.Safari$"
              ]
            }
          ]
        },
        {
          "type": "basic",
          "from": {
            "key_code": "keypad_0",
            "modifiers": {
              "mandatory": [
                "control"
              ],
              "optional": [
                "any"
              ]
            }
          },
          "to": [
            {
              "key_code": "keypad_0",
              "modifiers": [
                "left_command"
              ]
            }
          ],
          "conditions": [
            {
              "type": "frontmost_application_if",
              "bundle_identifiers": [
                "^org\\.mozilla\\.firefox$",
                "^com\\.google\\.Chrome$",
                "^com\\.apple\\.Safari$"
              ]
            }
          ]
        }
      ]
    },
    {
      "description": "PC-Style Control+Delete/Backspace",
      "manipulators": [
        {
          "type": "basic",
          "from": {
            "key_code": "delete_or_backspace",
            "modifiers": {
              "mandatory": [
                "control"
              ],
              "optional": [
                "any"
              ]
            }
          },
          "to": [
            {
              "key_code": "delete_or_backspace",
              "modifiers": [
                "option"
              ]
            }
          ],
          "conditions": [
            {
              "type": "frontmost_application_unless",
              "bundle_identifiers": [
                "^com\\.microsoft\\.rdc$",
                "^com\\.microsoft\\.rdc\\.mac$",
                "^com\\.microsoft\\.rdc\\.macos$",
                "^com\\.microsoft\\.rdc\\.osx\\.beta$",
                "^net\\.sf\\.cord$",
                "^com\\.thinomenon\\.RemoteDesktopConnection$",
                "^com\\.itap-mobile\\.qmote$",
                "^com\\.nulana\\.remotixmac$",
                "^com\\.p5sys\\.jump\\.mac\\.viewer$",
                "^com\\.p5sys\\.jump\\.mac\\.viewer\\.web$",
                "^com\\.teamviewer\\.TeamViewer$",
                "^com\\.vmware\\.horizon$",
                "^com\\.2X\\.Client\\.Mac$",
                "^com\\.vmware\\.fusion$",
                "^com\\.vmware\\.horizon$",
                "^com\\.vmware\\.view$",
                "^com\\.parallels\\.desktop$",
                "^com\\.parallels\\.vm$",
                "^com\\.parallels\\.desktop\\.console$",
                "^org\\.virtualbox\\.app\\.VirtualBoxVM$",
                "^com\\.citrix\\.XenAppViewer$",
                "^com\\.vmware\\.proxyApp\\.",
                "^com\\.parallels\\.winapp\\.",
                "^com\\.apple\\.Terminal$",
                "^com\\.googlecode\\.iterm2$",
                "^co\\.zeit\\.hyperterm$",
                "^co\\.zeit\\.hyper$",
                "^io\\.alacritty$",
                "^net\\.kovidgoyal\\.kitty$"
              ]
            }
          ]
        }
      ]
    }
  ]
}
